[gd_scene load_steps=6 format=2]

[ext_resource path="res://media/muzzle_01.png" type="Texture" id=1]
[ext_resource path="res://media/slash_03.png" type="Texture" id=2]
[ext_resource path="res://assets/attack/LazerPinkish/LazerPinkish.gd" type="Script" id=3]

[sub_resource type="CanvasItemMaterial" id=1]
blend_mode = 1

[sub_resource type="Gradient" id=2]
offsets = PoolRealArray( 0, 0.821678, 0.962963 )
colors = PoolColorArray( 0.390625, 0.256348, 0.256348, 1, 1, 1, 1, 0, 1, 1, 1, 0.792302 )

[node name="LazerPinkish" type="RayCast2D"]
script = ExtResource( 3 )

[node name="BeamParticles" type="CPUParticles2D" parent="."]
material = SubResource( 1 )
position = Vector2( 600, 0 )
scale = Vector2( 5, 0.5 )
emitting = false
amount = 40
lifetime = 15.0
speed_scale = 64.0
texture = ExtResource( 1 )
emission_shape = 2
emission_rect_extents = Vector2( 1, 1 )
flag_align_y = true
direction = Vector2( 200, 3 )
spread = 10.0
gravity = Vector2( 100, 0 )
initial_velocity = 12.0
initial_velocity_random = 0.41
angular_velocity = -53.33
color = Color( 0.305882, 0.203922, 0.666667, 1 )
color_ramp = SubResource( 2 )
anim_speed_random = 0.22

[node name="BeamWaveParticles" type="CPUParticles2D" parent="."]
material = SubResource( 1 )
position = Vector2( 600, 0 )
scale = Vector2( 5, 1 )
emitting = false
amount = 40
lifetime = 15.0
preprocess = 5.0
speed_scale = 11.7
explosiveness = 0.03
randomness = 0.58
texture = ExtResource( 2 )
emission_shape = 2
emission_rect_extents = Vector2( 1, 1 )
flag_align_y = true
direction = Vector2( 200, 3 )
spread = 10.0
gravity = Vector2( 100, 0 )
initial_velocity = 12.0
initial_velocity_random = 0.41
angular_velocity = -53.33
color = Color( 0.619608, 0.211765, 0.45098, 1 )
color_ramp = SubResource( 2 )
anim_speed_random = 0.22

[node name="Tween" type="Tween" parent="."]

[node name="Line2D" type="Line2D" parent="."]
visible = false
points = PoolVector2Array( 2708, 4, 0, 0 )
