[gd_resource type="AudioBusLayout" format=2]

[resource]
bus/0/volume_db = -0.923751
bus/1/name = "Voice"
bus/1/solo = false
bus/1/mute = false
bus/1/bypass_fx = false
bus/1/volume_db = -2.91905
bus/1/send = "Master"
bus/2/name = "BOSS"
bus/2/solo = false
bus/2/mute = false
bus/2/bypass_fx = false
bus/2/volume_db = 4.03575
bus/2/send = "Master"
bus/3/name = "Walking"
bus/3/solo = false
bus/3/mute = false
bus/3/bypass_fx = false
bus/3/volume_db = -7.63485
bus/3/send = "Master"
bus/4/name = "SFX"
bus/4/solo = false
bus/4/mute = false
bus/4/bypass_fx = false
bus/4/volume_db = -4.50411
bus/4/send = "Master"
bus/5/name = "UI"
bus/5/solo = false
bus/5/mute = false
bus/5/bypass_fx = false
bus/5/volume_db = -0.130497
bus/5/send = "Master"
bus/6/name = "Music"
bus/6/solo = false
bus/6/mute = false
bus/6/bypass_fx = false
bus/6/volume_db = 0.0694828
bus/6/send = "Master"
